<?xml version="1.0" encoding="UTF-8" standalone="no"?>
<!-- Created with Inkscape (http://www.inkscape.org/) -->

<svg
   xmlns:dc="http://purl.org/dc/elements/1.1/"
   xmlns:cc="http://creativecommons.org/ns#"
   xmlns:rdf="http://www.w3.org/1999/02/22-rdf-syntax-ns#"
   xmlns:svg="http://www.w3.org/2000/svg"
   xmlns="http://www.w3.org/2000/svg"
   xmlns:sodipodi="http://sodipodi.sourceforge.net/DTD/sodipodi-0.dtd"
   xmlns:inkscape="http://www.inkscape.org/namespaces/inkscape"
   width="726.27386"
   height="622"
   id="svg2"
   version="1.1"
   inkscape:version="0.48.4 r9939"
   sodipodi:docname="Новый документ 1">
  <defs
     id="defs4" />
  <sodipodi:namedview
     id="base"
     pagecolor="#ffffff"
     bordercolor="#666666"
     borderopacity="1.0"
     inkscape:pageopacity="0.0"
     inkscape:pageshadow="2"
     inkscape:zoom="0.49497475"
     inkscape:cx="262.58112"
     inkscape:cy="391.62249"
     inkscape:document-units="px"
     inkscape:current-layer="layer1"
     showgrid="true"
     fit-margin-top="0"
     fit-margin-left="0"
     fit-margin-right="0"
     fit-margin-bottom="0"
     inkscape:window-width="1862"
     inkscape:window-height="1061"
     inkscape:window-x="54"
     inkscape:window-y="-4"
     inkscape:window-maximized="1">
    <inkscape:grid
       type="xygrid"
       id="grid2985"
       empspacing="5"
       visible="true"
       enabled="true"
       snapvisiblegridlinesonly="true"
       originx="-11.891017px"
       originy="-383.48718px" />
  </sodipodi:namedview>
  <metadata
     id="metadata7">
    <rdf:RDF>
      <cc:Work
         rdf:about="">
        <dc:format>image/svg+xml</dc:format>
        <dc:type
           rdf:resource="http://purl.org/dc/dcmitype/StillImage" />
        <dc:title></dc:title>
      </cc:Work>
    </rdf:RDF>
  </metadata>
  <g
     inkscape:label="Layer 1"
     inkscape:groupmode="layer"
     id="layer1"
     transform="translate(-11.891017,-46.875)">
    <g
       id="g4198">
      <rect
         ry="10"
         rx="10"
         y="49.862183"
         x="23.485809"
         height="120"
         width="709.99969"
         id="rect2987"
         style="fill:#00afa1;fill-opacity:1;stroke:#007b6b;stroke-width:6;stroke-linejoin:round;stroke-miterlimit:4;stroke-opacity:1;stroke-dasharray:none" />
      <path
         inkscape:connector-curvature="0"
         id="path3757"
         d="m 290.73208,49.862183 0,119.999997"
         style="fill:none;stroke:#007b6b;stroke-width:7;stroke-linecap:butt;stroke-linejoin:miter;stroke-miterlimit:4;stroke-opacity:1;stroke-dasharray:none" />
      <path
         inkscape:connector-curvature="0"
         id="path3757-1"
         d="m 115.22486,49.862183 0,119.999997"
         style="fill:none;stroke:#007b6b;stroke-width:7;stroke-linecap:butt;stroke-linejoin:miter;stroke-miterlimit:4;stroke-opacity:1;stroke-dasharray:none" />
      <path
         inkscape:connector-curvature="0"
         id="path3757-7"
         d="m 641.74654,49.862183 0,119.999997"
         style="fill:none;stroke:#007b6b;stroke-width:7;stroke-linecap:butt;stroke-linejoin:miter;stroke-miterlimit:4;stroke-opacity:1;stroke-dasharray:none" />
      <path
         inkscape:connector-curvature="0"
         id="path3757-4"
         d="m 466.2393,49.862183 0,119.999997"
         style="fill:none;stroke:#007b6b;stroke-width:7;stroke-linecap:butt;stroke-linejoin:miter;stroke-miterlimit:4;stroke-opacity:1;stroke-dasharray:none" />
      <text
         sodipodi:linespacing="125%"
         id="text3791"
         y="135.06262"
         x="50"
         style="font-size:72px;font-style:normal;font-variant:normal;font-weight:normal;font-stretch:normal;line-height:125%;letter-spacing:0px;word-spacing:0px;fill:#fdfdfd;fill-opacity:1;stroke:none;font-family:Russo One;-inkscape-font-specification:Russo One"
         xml:space="preserve"><tspan
           y="135.06262"
           x="50"
           id="tspan3793"
           sodipodi:role="line">А</tspan></text>
      <text
         sodipodi:linespacing="125%"
         id="text3791-4"
         y="135.06262"
         x="150"
         style="font-size:72px;font-style:normal;font-variant:normal;font-weight:normal;font-stretch:normal;line-height:125%;letter-spacing:0px;word-spacing:0px;fill:#fdfdfd;fill-opacity:1;stroke:none;font-family:Russo One;-inkscape-font-specification:Russo One"
         xml:space="preserve"><tspan
           y="135.06262"
           x="150"
           id="tspan3793-8"
           sodipodi:role="line">ТМ</tspan></text>
      <text
         sodipodi:linespacing="125%"
         id="text3791-8"
         y="135.06152"
         x="330"
         style="font-size:72px;font-style:normal;font-variant:normal;font-weight:normal;font-stretch:normal;line-height:125%;letter-spacing:0px;word-spacing:0px;fill:#fdfdfd;fill-opacity:1;stroke:none;font-family:Russo One;-inkscape-font-specification:Russo One"
         xml:space="preserve"><tspan
           y="135.06152"
           x="330"
           id="tspan3793-2"
           sodipodi:role="line">ОТ</tspan></text>
      <text
         sodipodi:linespacing="125%"
         id="text3791-45"
         y="134.70227"
         x="500"
         style="font-size:72px;font-style:normal;font-variant:normal;font-weight:normal;font-stretch:normal;line-height:125%;letter-spacing:0px;word-spacing:0px;fill:#fdfdfd;fill-opacity:1;stroke:none;font-family:Russo One;-inkscape-font-specification:Russo One"
         xml:space="preserve"><tspan
           y="134.70227"
           x="500"
           id="tspan3793-5"
           sodipodi:role="line">ВУ</tspan></text>
      <text
         sodipodi:linespacing="125%"
         id="text3791-1"
         y="135.06262"
         x="660"
         style="font-size:72px;font-style:normal;font-variant:normal;font-weight:normal;font-stretch:normal;line-height:125%;letter-spacing:0px;word-spacing:0px;fill:#fdfdfd;fill-opacity:1;stroke:none;font-family:Russo One;-inkscape-font-specification:Russo One"
         xml:space="preserve"><tspan
           y="135.06262"
           x="660"
           id="tspan3793-7"
           sodipodi:role="line">Н</tspan></text>
      <path
         transform="matrix(4.9027621,-0.43314957,7.6843713,0.27635693,-1198.0418,159.22391)"
         inkscape:transform-center-y="5.5881245"
         inkscape:transform-center-x="3.1885704"
         d="m 60,212.36218 -77.320508,4.64102 34.641016,-69.28203 z"
         inkscape:randomized="0"
         inkscape:rounded="0"
         inkscape:flatsided="true"
         sodipodi:arg2="1.5108452"
         sodipodi:arg1="0.46364761"
         sodipodi:r2="22.36068"
         sodipodi:r1="44.721359"
         sodipodi:cy="192.36218"
         sodipodi:cx="20"
         sodipodi:sides="3"
         id="path3864"
         style="fill:#00c14f;fill-opacity:1;stroke:#00c14f;stroke-width:2.21378183;stroke-linejoin:round;stroke-miterlimit:4;stroke-opacity:1;stroke-dasharray:none"
         sodipodi:type="star" />
      <rect
         ry="8.9520664"
         rx="9.3128004"
         y="244.57739"
         x="19.739195"
         height="53.712399"
         width="158.3176"
         id="rect3870"
         style="fill:#00afa1;fill-opacity:1;stroke:#007b6b;stroke-width:6;stroke-linejoin:round;stroke-miterlimit:4;stroke-opacity:1;stroke-dasharray:none" />
      <rect
         ry="8.9520664"
         rx="9.3128004"
         y="244.57739"
         x="203.09291"
         height="53.712399"
         width="158.3176"
         id="rect3870-1"
         style="fill:#00afa1;fill-opacity:1;stroke:#007b6b;stroke-width:6;stroke-linejoin:round;stroke-miterlimit:4;stroke-opacity:1;stroke-dasharray:none" />
      <rect
         ry="8.9520664"
         rx="9.3128004"
         y="244.57739"
         x="386.44659"
         height="53.712399"
         width="158.3176"
         id="rect3870-15"
         style="fill:#00afa1;fill-opacity:1;stroke:#007b6b;stroke-width:6;stroke-linejoin:round;stroke-miterlimit:4;stroke-opacity:1;stroke-dasharray:none" />
      <rect
         ry="8.9520664"
         rx="9.3128004"
         y="244.57739"
         x="569.80035"
         height="53.712399"
         width="158.3176"
         id="rect3870-2"
         style="fill:#be3137;fill-opacity:1;stroke:#060600;stroke-width:6;stroke-linejoin:round;stroke-miterlimit:4;stroke-opacity:1;stroke-dasharray:none" />
      <text
         sodipodi:linespacing="125%"
         id="text3904"
         y="279.91357"
         x="31.071821"
         style="font-size:32px;font-style:normal;font-variant:normal;font-weight:normal;font-stretch:normal;line-height:125%;letter-spacing:0px;word-spacing:0px;fill:#dedede;fill-opacity:1;stroke:none;font-family:Russo One;-inkscape-font-specification:Russo One"
         xml:space="preserve"><tspan
           y="279.91357"
           x="31.071821"
           id="tspan3906"
           sodipodi:role="line">Прямые</tspan></text>
      <text
         sodipodi:linespacing="80.000001%"
         id="text3904-7"
         y="270.23337"
         x="207.1532"
         style="font-size:24px;font-style:normal;font-variant:normal;font-weight:normal;font-stretch:normal;text-align:start;line-height:80.00000119%;letter-spacing:0px;word-spacing:0px;writing-mode:lr-tb;text-anchor:start;fill:#dedede;fill-opacity:1;stroke:none;font-family:Russo One;-inkscape-font-specification:Russo One"
         xml:space="preserve"><tspan
           y="270.23337"
           x="207.1532"
           id="tspan3906-6"
           sodipodi:role="line">Косвенные</tspan><tspan
           id="tspan3947"
           y="289.43338"
           x="207.1532"
           sodipodi:role="line">отнесенные</tspan></text>
      <text
         sodipodi:linespacing="80.000001%"
         id="text3904-7-2"
         y="270.43341"
         x="390.61884"
         style="font-size:20px;font-style:normal;font-variant:normal;font-weight:normal;font-stretch:normal;text-align:start;line-height:80.00000119%;letter-spacing:0px;word-spacing:0px;writing-mode:lr-tb;text-anchor:start;fill:#dedede;fill-opacity:1;stroke:none;font-family:Russo One;-inkscape-font-specification:Russo One"
         xml:space="preserve"><tspan
           id="tspan3947-1"
           y="270.43341"
           x="390.61884"
           sodipodi:role="line">Косвенные </tspan><tspan
           id="tspan3975"
           y="286.43341"
           x="390.61884"
           sodipodi:role="line">неотнесенные</tspan></text>
      <text
         sodipodi:linespacing="80.000001%"
         id="text3904-7-2-7"
         y="278.33362"
         x="572.8764"
         style="font-size:20px;font-style:normal;font-variant:normal;font-weight:normal;font-stretch:normal;text-align:start;line-height:80.00000119%;letter-spacing:0px;word-spacing:0px;writing-mode:lr-tb;text-anchor:start;fill:#dedede;fill-opacity:1;stroke:none;font-family:Russo One;-inkscape-font-specification:Russo One"
         xml:space="preserve"><tspan
           id="tspan3975-1"
           y="278.33362"
           x="572.8764"
           sodipodi:role="line">Неотнесенные</tspan></text>
      <g
         transform="translate(0,-1)"
         id="g4056">
        <rect
           style="fill:#dedede;fill-opacity:1;stroke:#060600;stroke-width:3;stroke-linejoin:round;stroke-miterlimit:4;stroke-opacity:1;stroke-dasharray:none"
           id="rect4014"
           width="160"
           height="160"
           x="20"
           y="322.36218"
           rx="0"
           ry="0" />
        <path
           style="fill:none;stroke:#000000;stroke-width:3;stroke-linecap:butt;stroke-linejoin:miter;stroke-miterlimit:4;stroke-opacity:1;stroke-dasharray:none"
           d="m 20,352.36218 160,0"
           id="path4016"
           inkscape:connector-curvature="0" />
        <path
           style="fill:none;stroke:#000000;stroke-width:3;stroke-linecap:butt;stroke-linejoin:miter;stroke-miterlimit:4;stroke-opacity:1;stroke-dasharray:none"
           d="m 50,322.36218 0,160"
           id="path4018"
           inkscape:connector-curvature="0" />
        <text
           xml:space="preserve"
           style="font-size:28px;font-style:normal;font-variant:normal;font-weight:normal;font-stretch:normal;line-height:125%;letter-spacing:0px;word-spacing:0px;fill:#000000;fill-opacity:1;stroke:none;font-family:Russo One;-inkscape-font-specification:Russo One"
           x="60"
           y="347.36218"
           id="text4020"
           sodipodi:linespacing="125%"><tspan
             sodipodi:role="line"
             id="tspan4022"
             x="60"
             y="347.36218">Услуги</tspan></text>
        <text
           xml:space="preserve"
           style="font-size:28px;font-style:normal;font-variant:normal;font-weight:normal;font-stretch:normal;line-height:125%;letter-spacing:0px;word-spacing:0px;fill:#000000;fill-opacity:1;stroke:none;font-family:Russo One;-inkscape-font-specification:Russo One"
           x="-477.36218"
           y="45"
           id="text4020-7"
           sodipodi:linespacing="125%"
           transform="matrix(0,-1,1,0,0,0)"><tspan
             sodipodi:role="line"
             id="tspan4022-9"
             x="-477.36218"
             y="45">Затраты</tspan></text>
      </g>
      <g
         id="g4056-5"
         transform="translate(180,-1)">
        <rect
           style="fill:#dedede;fill-opacity:1;stroke:#060600;stroke-width:3;stroke-linejoin:round;stroke-miterlimit:4;stroke-opacity:1;stroke-dasharray:none"
           id="rect4014-4"
           width="160"
           height="160"
           x="20"
           y="322.36218"
           rx="0"
           ry="0" />
        <path
           style="fill:none;stroke:#000000;stroke-width:3;stroke-linecap:butt;stroke-linejoin:miter;stroke-miterlimit:4;stroke-opacity:1;stroke-dasharray:none"
           d="m 20,352.36218 160,0"
           id="path4016-3"
           inkscape:connector-curvature="0" />
        <path
           style="fill:none;stroke:#000000;stroke-width:3;stroke-linecap:butt;stroke-linejoin:miter;stroke-miterlimit:4;stroke-opacity:1;stroke-dasharray:none"
           d="m 50,322.36218 0,160"
           id="path4018-1"
           inkscape:connector-curvature="0" />
        <text
           xml:space="preserve"
           style="font-size:28px;font-style:normal;font-variant:normal;font-weight:normal;font-stretch:normal;line-height:125%;letter-spacing:0px;word-spacing:0px;fill:#000000;fill-opacity:1;stroke:none;font-family:Russo One;-inkscape-font-specification:Russo One"
           x="60"
           y="347.36218"
           id="text4020-2"
           sodipodi:linespacing="125%"><tspan
             sodipodi:role="line"
             id="tspan4022-3"
             x="60"
             y="347.36218">Услуги</tspan></text>
        <text
           xml:space="preserve"
           style="font-size:28px;font-style:normal;font-variant:normal;font-weight:normal;font-stretch:normal;line-height:125%;letter-spacing:0px;word-spacing:0px;fill:#000000;fill-opacity:1;stroke:none;font-family:Russo One;-inkscape-font-specification:Russo One"
           x="-477.36218"
           y="45"
           id="text4020-7-3"
           sodipodi:linespacing="125%"
           transform="matrix(0,-1,1,0,0,0)"><tspan
             sodipodi:role="line"
             id="tspan4022-9-4"
             x="-477.36218"
             y="45">Затраты</tspan></text>
      </g>
      <rect
         y="322.19775"
         x="385"
         height="40"
         width="160"
         id="rect4104"
         style="fill:#dedede;fill-opacity:1;stroke:#060600;stroke-width:3;stroke-linejoin:round;stroke-miterlimit:4;stroke-opacity:1;stroke-dasharray:none" />
      <text
         sodipodi:linespacing="80.000001%"
         id="text4106"
         y="339.22775"
         x="464.56024"
         style="font-size:22px;font-style:normal;font-variant:normal;font-weight:normal;font-stretch:normal;text-align:center;line-height:80.00000119%;letter-spacing:0px;word-spacing:0px;writing-mode:lr-tb;text-anchor:middle;fill:#000000;fill-opacity:1;stroke:none;font-family:Russo One;-inkscape-font-specification:Russo One"
         xml:space="preserve"><tspan
           y="339.22775"
           x="464.56024"
           id="tspan4108"
           sodipodi:role="line">Затраты/</tspan><tspan
           id="tspan4110"
           y="356.82776"
           x="464.56024"
           sodipodi:role="line">работы</tspan></text>
      <rect
         y="375.33218"
         x="385.43976"
         height="40"
         width="160"
         id="rect4104-1"
         style="fill:#dedede;fill-opacity:1;stroke:#060600;stroke-width:3;stroke-linejoin:round;stroke-miterlimit:4;stroke-opacity:1;stroke-dasharray:none" />
      <text
         sodipodi:linespacing="80.000001%"
         id="text4106-1"
         y="392.36218"
         x="465"
         style="font-size:22px;font-style:normal;font-variant:normal;font-weight:normal;font-stretch:normal;text-align:center;line-height:80.00000119%;letter-spacing:0px;word-spacing:0px;writing-mode:lr-tb;text-anchor:middle;fill:#000000;fill-opacity:1;stroke:none;font-family:Russo One;-inkscape-font-specification:Russo One"
         xml:space="preserve"><tspan
           y="392.36218"
           x="465"
           id="tspan4108-3"
           sodipodi:role="line">Работы/</tspan><tspan
           id="tspan4110-8"
           y="409.96219"
           x="465"
           sodipodi:role="line">Услуги</tspan></text>
      <rect
         y="440.33218"
         x="385.43976"
         height="40"
         width="160"
         id="rect4104-7"
         style="fill:#dedede;fill-opacity:1;stroke:#060600;stroke-width:3;stroke-linejoin:round;stroke-miterlimit:4;stroke-opacity:1;stroke-dasharray:none" />
      <text
         sodipodi:linespacing="80.000001%"
         id="text4106-4"
         y="457.36218"
         x="465"
         style="font-size:22px;font-style:normal;font-variant:normal;font-weight:normal;font-stretch:normal;text-align:center;line-height:80.00000119%;letter-spacing:0px;word-spacing:0px;writing-mode:lr-tb;text-anchor:middle;fill:#000000;fill-opacity:1;stroke:none;font-family:Russo One;-inkscape-font-specification:Russo One"
         xml:space="preserve"><tspan
           y="457.36218"
           x="465"
           id="tspan4108-2"
           sodipodi:role="line">Услуги/</tspan><tspan
           id="tspan4110-7"
           y="474.96219"
           x="465"
           sodipodi:role="line">затраты</tspan></text>
      <rect
         ry="0"
         rx="0"
         y="508.54929"
         x="21.187113"
         height="157.62578"
         width="521.1972"
         id="rect4014-9"
         style="fill:#dedede;fill-opacity:1;stroke:#060600;stroke-width:5.37422609;stroke-linejoin:round;stroke-miterlimit:4;stroke-opacity:1;stroke-dasharray:none" />
      <path
         sodipodi:nodetypes="cc"
         inkscape:connector-curvature="0"
         id="path4016-31"
         d="m 20,537.36218 520,0"
         style="fill:none;stroke:#000000;stroke-width:3;stroke-linecap:butt;stroke-linejoin:miter;stroke-miterlimit:4;stroke-opacity:1;stroke-dasharray:none" />
      <path
         inkscape:connector-curvature="0"
         id="path4018-9"
         d="m 50,507.36218 0,160"
         style="fill:none;stroke:#000000;stroke-width:3;stroke-linecap:butt;stroke-linejoin:miter;stroke-miterlimit:4;stroke-opacity:1;stroke-dasharray:none" />
      <text
         sodipodi:linespacing="125%"
         id="text4020-8"
         y="532.36218"
         x="60"
         style="font-size:28px;font-style:normal;font-variant:normal;font-weight:normal;font-stretch:normal;line-height:125%;letter-spacing:0px;word-spacing:0px;fill:#000000;fill-opacity:1;stroke:none;font-family:Russo One;-inkscape-font-specification:Russo One"
         xml:space="preserve"><tspan
           y="532.36218"
           x="60"
           id="tspan4022-6"
           sodipodi:role="line">Услуги</tspan></text>
      <text
         transform="matrix(0,-1,1,0,0,0)"
         sodipodi:linespacing="125%"
         id="text4020-7-5"
         y="45"
         x="-662.36218"
         style="font-size:28px;font-style:normal;font-variant:normal;font-weight:normal;font-stretch:normal;line-height:125%;letter-spacing:0px;word-spacing:0px;fill:#000000;fill-opacity:1;stroke:none;font-family:Russo One;-inkscape-font-specification:Russo One"
         xml:space="preserve"><tspan
           y="45"
           x="-662.36218"
           id="tspan4022-9-0"
           sodipodi:role="line">Затраты</tspan></text>
    </g>
  </g>
</svg>
